NomAlien,Sexe,Planete,NoCabine
Zorglub,M,Trantor,1
Blorx,M,Euterpe,2
Urxiz,M,Aurora,3
Zbleurdite,F,Trantor,4
Darneurane,M,Trantor,5
Mulzo,M,Helicon,6
Zzzzzz,F,Aurora,7
Arghh,M,Nexon,8
Joranum,F,Euterpe,9
